{
	"info": {
		"_postman_id": "06ad4ed4-7c2a-443b-a9ac-2af383b49aa2",
		"name": "task",
		"schema": "https://schema.getpostman.com/json/collection/v2.1.0/collection.json"
	},
	"item": [
		{
			"name": "[POST] Generate",
			"request": {
				"method": "POST",
				"header": [],
				"url": {
					"raw": "http://test.loc/api/products/generate",
					"protocol": "http",
					"host": [
						"test",
						"loc"
					],
					"path": [
						"api",
						"products",
						"generate"
					]
				}
			},
			"response": []
		},
		{
			"name": "[POST] Order",
			"request": {
				"method": "POST",
				"header": [
					{
						"key": "Content-Type",
						"name": "Content-Type",
						"value": "application/json",
						"type": "text"
					}
				],
				"body": {
					"mode": "raw",
					"raw": "{\n    \"product_ids\": [\n        1,\n        2,\n        3,\n        4,\n        1,\n        2\n    ]\n}",
					"options": {
						"raw": {
							"language": "json"
						}
					}
				},
				"url": {
					"raw": "http://test.loc/api/order",
					"protocol": "http",
					"host": [
						"test",
						"loc"
					],
					"path": [
						"api",
						"order"
					]
				}
			},
			"response": []
		},
		{
			"name": "[POST] Pay Order",
			"request": {
				"method": "POST",
				"header": [
					{
						"key": "Content-Type",
						"name": "Content-Type",
						"type": "text",
						"value": "application/json"
					}
				],
				"body": {
					"mode": "raw",
					"raw": "{\n    \"order_id\": 2,\n    \"amount\": 242.99\n}",
					"options": {
						"raw": {
							"language": "json"
						}
					}
				},
				"url": {
					"raw": "http://test.loc/api/order/pay",
					"protocol": "http",
					"host": [
						"test",
						"loc"
					],
					"path": [
						"api",
						"order",
						"pay"
					]
				}
			},
			"response": []
		},
		{
			"name": "[GET] Get All",
			"request": {
				"method": "GET",
				"header": [],
				"url": {
					"raw": "http://test.loc/api/products/",
					"protocol": "http",
					"host": [
						"test",
						"loc"
					],
					"path": [
						"api",
						"products",
						""
					]
				}
			},
			"response": []
		}
	],
	"protocolProfileBehavior": {}
}